{
    "defaultEnv": "dev",
    "dev": {
        "driver": "mongodb",
        "database": "aswatrest",
        "username": "",
        "pwd": "",
        "host": "localhost",
        "port": 27017
    }
}